{
    "opts": {
        "destination": "./docs",
        "template": "node_modules/docdash",
        "recurse": true
    },
    "plugins": [
        "plugins/markdown"
    ],
    "source": {
        "includePattern": ".+\\.js(doc|x)?$",
        "excludePattern": "(^|\\/|\\\\)_"
    },
    "sourceType": "module"
}
